{
  "project_info": {
    "project_number": "752315813806",
    "project_id": "auth-3df0c",
    "storage_bucket": "auth-3df0c.appspot.com"
  },
  "client": [
    {
      "client_info": {
        "mobilesdk_app_id": "1:752315813806:android:98ab54367bb8c24d9a423f",
        "android_client_info": {
          "package_name": "com.example.Auth_firebase"
        }
      },
      "oauth_client": [
        {
          "client_id": "752315813806-641k8npu69mlc7klb1k87il7ahjpq8sm.apps.googleusercontent.com",
          "client_type": 1,
          "android_info": {
            "package_name": "com.example.Auth_firebase",
            "certificate_hash": "9fa0aeb260e185785b0d8861ae0aca5fc923536d"
          }
        },
        {
          "client_id": "752315813806-vdi8tgne19h04335v8ummj6b8jj5eqbl.apps.googleusercontent.com",
          "client_type": 3
        }
      ],
      "api_key": [
        {
          "current_key": "AIzaSyDDfNRKks8Ul1YAL7vlYQdm9md7_ikSvoY"
        }
      ],
      "services": {
        "appinvite_service": {
          "other_platform_oauth_client": [
            {
              "client_id": "752315813806-vdi8tgne19h04335v8ummj6b8jj5eqbl.apps.googleusercontent.com",
              "client_type": 3
            }
          ]
        }
      }
    },
    {
      "client_info": {
        "mobilesdk_app_id": "1:752315813806:android:2c2b6d71c4214b059a423f",
        "android_client_info": {
          "package_name": "com.google.auth"
        }
      },
      "oauth_client": [
        {
          "client_id": "752315813806-0iv5id9c9p58mi0msfbh3fani7qnjlhf.apps.googleusercontent.com",
          "client_type": 1,
          "android_info": {
            "package_name": "com.google.auth",
            "certificate_hash": "9fa0aeb260e185785b0d8861ae0aca5fc923536d"
          }
        },
        {
          "client_id": "752315813806-vdi8tgne19h04335v8ummj6b8jj5eqbl.apps.googleusercontent.com",
          "client_type": 3
        }
      ],
      "api_key": [
        {
          "current_key": "AIzaSyDDfNRKks8Ul1YAL7vlYQdm9md7_ikSvoY"
        }
      ],
      "services": {
        "appinvite_service": {
          "other_platform_oauth_client": [
            {
              "client_id": "752315813806-vdi8tgne19h04335v8ummj6b8jj5eqbl.apps.googleusercontent.com",
              "client_type": 3
            }
          ]
        }
      }
    }
  ],
  "configuration_version": "1"
}